Lab6/cocotb/waveform.vcd
$date
	Wed Mar 19 14:04:54 2025
$end
$version
	Icarus Verilog
$end
$timescale
	1ps
$end
$scope module SingleCycleCPU $end
$var wire 1 ! clk $end
$var wire 32 " reg5Dataw [31:0] $end
$var wire 1 # start $end
$var wire 32 $ writeDataw [31:0] $end
$var wire 8 % segments [7:0] $end
$var wire 1 & regWritew $end
$var wire 32 ' readDataw [31:0] $end
$var wire 32 ( readData2w [31:0] $end
$var wire 32 ) readData1w [31:0] $end
$var wire 32 * pc_ow [31:0] $end
$var wire 32 + pc_iw [31:0] $end
$var wire 1 , memwritew $end
$var wire 2 - memtoregw [1:0] $end
$var wire 1 . memReadw $end
$var wire 32 / inst_memo [31:0] $end
$var wire 32 0 immw [31:0] $end
$var wire 1 1 brLtw $end
$var wire 1 2 brEqw $end
$var wire 4 3 an [3:0] $end
$var wire 32 4 addressw [31:0] $end
$var wire 32 5 adder_ow [31:0] $end
$var wire 1 6 PCSelw $end
$var wire 32 7 Bw [31:0] $end
$var wire 32 8 Aw [31:0] $end
$var wire 3 9 ALUopw [2:0] $end
$var wire 1 : ALUSrc2w $end
$var wire 1 ; ALUSrc1w $end
$var wire 4 < ALUCt1w [3:0] $end
$scope module SevenSegmentDisplayInst $end
$var wire 1 ! Clk $end
$var wire 16 = DataIn [15:0] $end
$var wire 1 # Reset $end
$var wire 2 > selector [1:0] $end
$var wire 4 ? out [3:0] $end
$var wire 8 @ Segments [7:0] $end
$var wire 4 A AN [3:0] $end
$var parameter 32 B ControllerClockCycle $end
$var parameter 32 C ControllerCounterWidth $end
$scope module SevenSegmentControllerInst $end
$var wire 4 D AN [3:0] $end
$var wire 1 ! Clk $end
$var wire 1 # Reset $end
$var wire 2 E Selector [1:0] $end
$var parameter 32 F ControllerClockCycle $end
$var parameter 32 G ControllerCounterWidth $end
$var reg 1 H Counter $end
$var reg 4 I an [3:0] $end
$var reg 2 J select [1:0] $end
$upscope $end
$scope module SevenSegmentDecoderInst $end
$var wire 8 K Segments [7:0] $end
$var wire 4 L DataIn [3:0] $end
$var reg 8 M segments [7:0] $end
$upscope $end
$scope module SevenSegmentMultiplexerInst $end
$var wire 16 N DataIn [15:0] $end
$var wire 4 O DataOut [3:0] $end
$var wire 2 P Selector [1:0] $end
$var reg 4 Q out [3:0] $end
$upscope $end
$upscope $end
$scope module m_ALU $end
$var wire 1 1 brLt $end
$var wire 1 2 brEq $end
$var wire 32 R B [31:0] $end
$var wire 4 S ALUctl [3:0] $end
$var wire 32 T A [31:0] $end
$var parameter 4 U ADD $end
$var parameter 4 V ADDEVEN $end
$var parameter 4 W ADDIFEQ $end
$var parameter 4 X ADDIFLT $end
$var parameter 4 Y ADDIFNEQ $end
$var parameter 4 Z ADDIFNLT $end
$var parameter 4 [ AND $end
$var parameter 4 \ NOTHING $end
$var parameter 4 ] OR $end
$var parameter 4 ^ SLT $end
$var parameter 4 _ SUB $end
$var reg 32 ` ALUOut [31:0] $end
$upscope $end
$scope module m_ALUCtrl $end
$var wire 3 a funct3 [2:0] $end
$var wire 1 b funct7 $end
$var wire 3 c ALUOp [2:0] $end
$var parameter 4 d ADD $end
$var parameter 4 e ADDEVEN $end
$var parameter 4 f ADDIFEQ $end
$var parameter 4 g ADDIFLT $end
$var parameter 4 h ADDIFNEQ $end
$var parameter 4 i ADDIFNLT $end
$var parameter 4 j AND $end
$var parameter 4 k NOTHING $end
$var parameter 4 l OR $end
$var parameter 4 m SLT $end
$var parameter 4 n SUB $end
$var reg 4 o ALUCtl [3:0] $end
$upscope $end
$scope module m_Adder_1 $end
$var wire 32 p b [31:0] $end
$var wire 32 q sum [31:0] $end
$var wire 32 r a [31:0] $end
$var reg 32 s sumReg [31:0] $end
$upscope $end
$scope module m_BranchComp $end
$var wire 32 t rs2 [31:0] $end
$var wire 32 u rs1 [31:0] $end
$var wire 1 1 brLt $end
$var wire 1 2 brEq $end
$upscope $end
$scope module m_Control $end
$var wire 7 v opcode [6:0] $end
$var reg 3 w ALUOp [2:0] $end
$var reg 1 ; ALUSrc1 $end
$var reg 1 : ALUSrc2 $end
$var reg 1 6 PCSel $end
$var reg 1 . memRead $end
$var reg 1 , memWrite $end
$var reg 2 x memtoReg [1:0] $end
$var reg 1 & regWrite $end
$upscope $end
$scope module m_DataMemory $end
$var wire 32 y address [31:0] $end
$var wire 1 ! clk $end
$var wire 1 . memRead $end
$var wire 1 , memWrite $end
$var wire 1 # rst $end
$var wire 32 z writeData [31:0] $end
$var reg 32 { readData [31:0] $end
$upscope $end
$scope module m_ImmGen $end
$var wire 7 | opcode [6:0] $end
$var wire 32 } inst [31:0] $end
$var reg 32 ~ imm [31:0] $end
$upscope $end
$scope module m_InstMem $end
$var wire 32 !" readAddr [31:0] $end
$var wire 32 "" inst [31:0] $end
$upscope $end
$scope module m_Mux_ALU_1 $end
$var wire 32 #" out [31:0] $end
$var wire 1 ; sel $end
$var wire 32 $" s1 [31:0] $end
$var wire 32 %" s0 [31:0] $end
$var parameter 32 &" size $end
$var reg 32 '" reg_out [31:0] $end
$upscope $end
$scope module m_Mux_ALU_2 $end
$var wire 32 (" out [31:0] $end
$var wire 32 )" s1 [31:0] $end
$var wire 1 : sel $end
$var wire 32 *" s0 [31:0] $end
$var parameter 32 +" size $end
$var reg 32 ," reg_out [31:0] $end
$upscope $end
$scope module m_Mux_PC $end
$var wire 32 -" out [31:0] $end
$var wire 32 ." s0 [31:0] $end
$var wire 32 /" s1 [31:0] $end
$var wire 1 6 sel $end
$var parameter 32 0" size $end
$var reg 32 1" reg_out [31:0] $end
$upscope $end
$scope module m_Mux_WriteData $end
$var wire 32 2" out [31:0] $end
$var wire 32 3" s0 [31:0] $end
$var wire 32 4" s1 [31:0] $end
$var wire 32 5" s2 [31:0] $end
$var wire 2 6" sel [1:0] $end
$var parameter 32 7" size $end
$var reg 32 8" reg_out [31:0] $end
$upscope $end
$scope module m_PC $end
$var wire 1 ! clk $end
$var wire 32 9" pc_i [31:0] $end
$var wire 1 # rst $end
$var reg 32 :" pc_o [31:0] $end
$upscope $end
$scope module m_Register $end
$var wire 1 ! clk $end
$var wire 32 ;" readData1 [31:0] $end
$var wire 32 <" readData2 [31:0] $end
$var wire 5 =" readReg1 [4:0] $end
$var wire 5 >" readReg2 [4:0] $end
$var wire 32 ?" reg5Data [31:0] $end
$var wire 1 & regWrite $end
$var wire 1 # rst $end
$var wire 32 @" writeData [31:0] $end
$var wire 5 A" writeReg [4:0] $end
$upscope $end
$upscope $end
$enddefinitions $end
$comment Show the parameter values. $end
$dumpall
b100000 7"
b100000 0"
b100000 +"
b100000 &"
b1 n
b100 m
b11 l
b101 k
b10 j
b1010 i
b1000 h
b1001 g
b110 f
b111 e
b0 d
b1 _
b100 ^
b11 ]
b101 \
b10 [
b1010 Z
b1000 Y
b1001 X
b110 W
b111 V
b0 U
b1 G
b1 F
b1 C
b1 B
$end
#0
$dumpvars
b101 A"
b111 @"
b0 ?"
b111 >"
b0 ="
b0 <"
b0 ;"
b0 :"
b100 9"
b111 8"
b0 6"
b100 5"
b0 4"
b111 3"
b111 2"
b100 1"
b111 /"
b100 ."
b100 -"
b111 ,"
b0 *"
b111 )"
b111 ("
b0 '"
b0 %"
b0 $"
b0 #"
b11100000000001010010011 ""
b0 !"
b111 ~
b11100000000001010010011 }
b10011 |
b0 {
b0 z
b111 y
b0 x
b1 w
b10011 v
b0 u
b0 t
b100 s
b0 r
b100 q
b100 p
b0 o
b1 c
0b
b0 a
b111 `
b0 T
b0 S
b111 R
b0 Q
bx P
b0 O
b0 N
b11 M
b0 L
b11 K
bx J
b1111 I
0H
bx E
b1111 D
b1111 A
b11 @
b0 ?
bx >
b0 =
b0 <
0;
1:
b1 9
b0 8
b111 7
06
b100 5
b111 4
b1111 3
12
01
b111 0
b11100000000001010010011 /
0.
b0 -
0,
b100 +
b0 *
b0 )
b0 (
b0 '
1&
b11 %
b111 $
0#
b0 "
1!
$end
#5000
0!
#10000
b1110 3
b1110 A
b1110 D
b1110 I
1!
#15000
b11111 %
b11111 @
b11111 K
b11111 M
b111 ?
b111 L
b111 O
b111 Q
b111 =
b111 N
b111 "
b111 ?"
b0 >
b0 E
b0 P
b0 J
b1111 3
b1111 A
b1111 D
b1111 I
0!
1#
#20000
b100 $
b100 2"
b100 @"
b100 8"
b11111111111111111111111111111101 7
b11111111111111111111111111111101 R
b11111111111111111111111111111101 ("
b11111111111111111111111111111101 ,"
b100 4
b100 `
b100 y
b100 /"
b100 3"
b111 8
b111 T
b111 #"
b111 '"
b11111111111111111111111111111101 0
b11111111111111111111111111111101 ~
b11111111111111111111111111111101 )"
b1000 +
b1000 -"
b1000 9"
b1000 1"
1b
b11101 >"
02
b111 )
b111 u
b111 %"
b111 ;"
b101 ="
b11111111110100101000001010010011 /
b11111111110100101000001010010011 }
b11111111110100101000001010010011 ""
b1000 5
b1000 q
b1000 ."
b1000 5"
b1000 s
b100 *
b100 r
b100 !"
b100 $"
b100 :"
1!
#25000
b1 $
b1 2"
b1 @"
b1 8"
b1 4
b1 `
b1 y
b1 /"
b1 3"
b100 8
b100 T
b100 #"
b100 '"
b10011001 %
b10011001 @
b10011001 K
b10011001 M
b100 ?
b100 L
b100 O
b100 Q
b100 =
b100 N
b100 )
b100 u
b100 %"
b100 ;"
b100 "
b100 ?"
0!
#30000
b11111111111111111111111111011011 $
b11111111111111111111111111011011 2"
b11111111111111111111111111011011 @"
b11111111111111111111111111011011 8"
b11111111111111111111111111011011 7
b11111111111111111111111111011011 R
b11111111111111111111111111011011 ("
b11111111111111111111111111011011 ,"
b11111111111111111111111111011011 4
b11111111111111111111111111011011 `
b11111111111111111111111111011011 y
b11111111111111111111111111011011 /"
b11111111111111111111111111011011 3"
b0 8
b0 T
b0 #"
b0 '"
b11111111111111111111111111011011 0
b11111111111111111111111111011011 ~
b11111111111111111111111111011011 )"
b1100 +
b1100 -"
b1100 9"
b1100 1"
b110 A"
b11011 >"
12
b0 )
b0 u
b0 %"
b0 ;"
b0 ="
b11111101101100000000001100010011 /
b11111101101100000000001100010011 }
b11111101101100000000001100010011 ""
b1100 5
b1100 q
b1100 ."
b1100 5"
b1100 s
b1000 *
b1000 r
b1000 !"
b1000 $"
b1000 :"
1!
#35000
0!
#40000
b10011 $
b10011 2"
b10011 @"
b10011 8"
b10011 4
b10011 `
b10011 y
b10011 /"
b10011 3"
b10011 7
b10011 R
b10011 ("
b10011 ,"
b10011 0
b10011 ~
b10011 )"
b10000 +
b10000 -"
b10000 9"
b10000 1"
0b
b111 A"
b10011 >"
b1001100000000001110010011 /
b1001100000000001110010011 }
b1001100000000001110010011 ""
b10000 5
b10000 q
b10000 ."
b10000 5"
b10000 s
b1100 *
b1100 r
b1100 !"
b1100 $"
b1100 :"
1!
#45000
0!
#50000
b111 7
b111 R
b111 ("
b111 ,"
b11 $
b11 2"
b11 @"
b11 8"
b10011 8
b10011 T
b10011 #"
b10011 '"
b111 0
b111 ~
b111 )"
b10100 +
b10100 -"
b10100 9"
b10100 1"
b11 4
b11 `
b11 y
b11 /"
b11 3"
b10 <
b10 S
b10 o
b111 a
b10011 (
b10011 t
b10011 z
b10011 *"
b10011 <"
b111 >"
12
b10011 )
b10011 u
b10011 %"
b10011 ;"
b111 ="
b11100111111001110010011 /
b11100111111001110010011 }
b11100111111001110010011 ""
b10100 5
b10100 q
b10100 ."
b10100 5"
b10100 s
b10000 *
b10000 r
b10000 !"
b10000 $"
b10000 :"
1!
#55000
b11 8
b11 T
b11 #"
b11 '"
b11 )
b11 u
b11 %"
b11 ;"
12
b11 (
b11 t
b11 z
b11 *"
b11 <"
0!
#60000
b10 $
b10 2"
b10 @"
b10 8"
b10 4
b10 `
b10 y
b10 /"
b10 3"
b11111111111111111111111111111110 7
b11111111111111111111111111111110 R
b11111111111111111111111111111110 ("
b11111111111111111111111111111110 ,"
b11111111111111111111111111111110 0
b11111111111111111111111111111110 ~
b11111111111111111111111111111110 )"
b11000 +
b11000 -"
b11000 9"
b11000 1"
1b
b1000 A"
02
b0 (
b0 t
b0 z
b0 *"
b0 <"
b11110 >"
b11111111111000111111010000010011 /
b11111111111000111111010000010011 }
b11111111111000111111010000010011 ""
b11000 5
b11000 q
b11000 ."
b11000 5"
b11000 s
b10100 *
b10100 r
b10100 !"
b10100 $"
b10100 :"
1!
#65000
0!
#70000
b1101 7
b1101 R
b1101 ("
b1101 ,"
b1101 $
b1101 2"
b1101 @"
b1101 8"
b0 8
b0 T
b0 #"
b0 '"
b1101 0
b1101 ~
b1101 )"
b11100 +
b11100 -"
b11100 9"
b11100 1"
b1101 4
b1101 `
b1101 y
b1101 /"
b1101 3"
b11 <
b11 S
b11 o
b110 a
0b
b1001 A"
b1101 >"
12
b0 )
b0 u
b0 %"
b0 ;"
b0 ="
b110100000110010010010011 /
b110100000110010010010011 }
b110100000110010010010011 ""
b11100 5
b11100 q
b11100 ."
b11100 5"
b11100 s
b11000 *
b11000 r
b11000 !"
b11000 $"
b11000 :"
1!
#75000
0!
#80000
b11111111111111111111111111111111 $
b11111111111111111111111111111111 2"
b11111111111111111111111111111111 @"
b11111111111111111111111111111111 8"
b11111111111111111111111111111111 4
b11111111111111111111111111111111 `
b11111111111111111111111111111111 y
b11111111111111111111111111111111 /"
b11111111111111111111111111111111 3"
b11111111111111111111111111111110 7
b11111111111111111111111111111110 R
b11111111111111111111111111111110 ("
b11111111111111111111111111111110 ,"
b1101 8
b1101 T
b1101 #"
b1101 '"
b11111111111111111111111111111110 0
b11111111111111111111111111111110 ~
b11111111111111111111111111111110 )"
b100000 +
b100000 -"
b100000 9"
b100000 1"
1b
b1010 A"
b11110 >"
02
b1101 )
b1101 u
b1101 %"
b1101 ;"
b1001 ="
b11111111111001001110010100010011 /
b11111111111001001110010100010011 }
b11111111111001001110010100010011 ""
b100000 5
b100000 q
b100000 ."
b100000 5"
b100000 s
b11100 *
b11100 r
b11100 !"
b11100 $"
b11100 :"
1!
#85000
0!
#90000
bx 7
bx R
bx ("
bx ,"
b1 $
b1 2"
b1 @"
b1 8"
bx 8
bx T
bx #"
bx '"
bx 0
bx ~
bx )"
b100100 +
b100100 -"
b100100 9"
b100100 1"
b1 4
b1 `
b1 y
b1 /"
b1 3"
b1111 <
b1111 S
b1111 o
bx |
bx a
xb
bx A"
bx (
bx t
bx z
bx *"
bx <"
bx >"
x2
x1
bx )
bx u
bx %"
bx ;"
bx ="
bx v
bx /
bx }
bx ""
b100100 5
b100100 q
b100100 ."
b100100 5"
b100100 s
b100000 *
b100000 r
b100000 !"
b100000 $"
b100000 :"
1!
#95000
0!
#100000
b101000 +
b101000 -"
b101000 9"
b101000 1"
b101000 5
b101000 q
b101000 ."
b101000 5"
b101000 s
b100100 *
b100100 r
b100100 !"
b100100 $"
b100100 :"
1!
#105001
b1001101 0
b1001101 ~
b1001101 )"
b100 +
b100 -"
b100 9"
b100 1"
b1001101 7
b1001101 R
b1001101 ("
b1001101 ,"
b11 %
b11 @
b11 K
b11 M
b0 ?
b0 L
b0 O
b0 Q
b100 5
b100 q
b100 ."
b100 5"
b100 s
b0 =
b0 N
b1001101 $
b1001101 2"
b1001101 @"
b1001101 8"
b0 8
b0 T
b0 #"
b0 '"
1:
b1 9
b1 c
b1 w
b0 *
b0 r
b0 !"
b0 $"
b0 :"
b0 "
b0 ?"
b1001101 4
b1001101 `
b1001101 y
b1001101 /"
b1001101 3"
b0 <
b0 S
b0 o
b10011 |
b0 a
0b
b101 A"
12
01
b0 (
b0 t
b0 z
b0 *"
b0 <"
b1101 >"
b0 )
b0 u
b0 %"
b0 ;"
b0 ="
b10011 v
b100110100000000001010010011 /
b100110100000000001010010011 }
b100110100000000001010010011 ""
0#
#110001
0!
#115001
b1110 3
b1110 A
b1110 D
b1110 I
1!
#120001
b10000101 %
b10000101 @
b10000101 K
b10000101 M
b1101 ?
b1101 L
b1101 O
b1101 Q
b1001101 =
b1001101 N
b1001101 "
b1001101 ?"
b1111 3
b1111 A
b1111 D
b1111 I
0!
1#
#125001
b101 $
b101 2"
b101 @"
b101 8"
b101 4
b101 `
b101 y
b101 /"
b101 3"
b101 7
b101 R
b101 ("
b101 ,"
b101 0
b101 ~
b101 )"
b1000 +
b1000 -"
b1000 9"
b1000 1"
b110 A"
02
11
b1001101 (
b1001101 t
b1001101 z
b1001101 *"
b1001101 <"
b101 >"
b10100000000001100010011 /
b10100000000001100010011 }
b10100000000001100010011 ""
b1000 5
b1000 q
b1000 ."
b1000 5"
b1000 s
b100 *
b100 r
b100 !"
b100 $"
b100 :"
1!
#130001
0!
#135001
b11111111111111111111111111111011 $
b11111111111111111111111111111011 2"
b11111111111111111111111111111011 @"
b11111111111111111111111111111011 8"
b11111111111111111111111111111011 4
b11111111111111111111111111111011 `
b11111111111111111111111111111011 y
b11111111111111111111111111111011 /"
b11111111111111111111111111111011 3"
b11111111111111111111111111111011 7
b11111111111111111111111111111011 R
b11111111111111111111111111111011 ("
b11111111111111111111111111111011 ,"
b11111111111111111111111111111011 0
b11111111111111111111111111111011 ~
b11111111111111111111111111111011 )"
b1100 +
b1100 -"
b1100 9"
b1100 1"
1b
b111 A"
12
01
b0 (
b0 t
b0 z
b0 *"
b0 <"
b11011 >"
b11111111101100000000001110010011 /
b11111111101100000000001110010011 }
b11111111101100000000001110010011 ""
b1100 5
b1100 q
b1100 ."
b1100 5"
b1100 s
b1000 *
b1000 r
b1000 !"
b1000 $"
b1000 :"
1!
#140001
0!
#145001
b1010010 $
b1010010 2"
b1010010 @"
b1010010 8"
b101 7
b101 R
b101 ("
b101 ,"
b1010010 4
b1010010 `
b1010010 y
b1010010 /"
b1010010 3"
b1001101 8
b1001101 T
b1001101 #"
b1001101 '"
0:
b0 9
b0 c
b0 w
b110 0
b110 ~
b110 )"
b10000 +
b10000 -"
b10000 9"
b10000 1"
b110011 |
0b
b1000 A"
b101 (
b101 t
b101 z
b101 *"
b101 <"
b110 >"
02
b1001101 )
b1001101 u
b1001101 %"
b1001101 ;"
b101 ="
b110011 v
b11000101000010000110011 /
b11000101000010000110011 }
b11000101000010000110011 ""
b10000 5
b10000 q
b10000 ."
b10000 5"
b10000 s
b1100 *
b1100 r
b1100 !"
b1100 $"
b1100 :"
1!
#150001
0!
#155001
b1001000 $
b1001000 2"
b1001000 @"
b1001000 8"
b1001000 4
b1001000 `
b1001000 y
b1001000 /"
b1001000 3"
b11111111111111111111111111111011 7
b11111111111111111111111111111011 R
b11111111111111111111111111111011 ("
b11111111111111111111111111111011 ,"
b10100 +
b10100 -"
b10100 9"
b10100 1"
b1001 A"
11
b11111111111111111111111111111011 (
b11111111111111111111111111111011 t
b11111111111111111111111111111011 z
b11111111111111111111111111111011 *"
b11111111111111111111111111111011 <"
b111 >"
b11100101000010010110011 /
b11100101000010010110011 }
b11100101000010010110011 ""
b10100 5
b10100 q
b10100 ."
b10100 5"
b10100 s
b10000 *
b10000 r
b10000 !"
b10000 $"
b10000 :"
1!
#160001
0!
#165001
b1001000 $
b1001000 2"
b1001000 @"
b1001000 8"
b101 7
b101 R
b101 ("
b101 ,"
b11000 +
b11000 -"
b11000 9"
b11000 1"
b1001000 4
b1001000 `
b1001000 y
b1001000 /"
b1001000 3"
b1 <
b1 S
b1 o
1b
b1010 A"
01
b101 (
b101 t
b101 z
b101 *"
b101 <"
b110 >"
b1000000011000101000010100110011 /
b1000000011000101000010100110011 }
b1000000011000101000010100110011 ""
b11000 5
b11000 q
b11000 ."
b11000 5"
b11000 s
b10100 *
b10100 r
b10100 !"
b10100 $"
b10100 :"
1!
#170001
0!
#175001
b1010010 $
b1010010 2"
b1010010 @"
b1010010 8"
b1010010 4
b1010010 `
b1010010 y
b1010010 /"
b1010010 3"
b11111111111111111111111111111011 7
b11111111111111111111111111111011 R
b11111111111111111111111111111011 ("
b11111111111111111111111111111011 ,"
b11100 +
b11100 -"
b11100 9"
b11100 1"
b1011 A"
11
b11111111111111111111111111111011 (
b11111111111111111111111111111011 t
b11111111111111111111111111111011 z
b11111111111111111111111111111011 *"
b11111111111111111111111111111011 <"
b111 >"
b1000000011100101000010110110011 /
b1000000011100101000010110110011 }
b1000000011100101000010110110011 ""
b11100 5
b11100 q
b11100 ."
b11100 5"
b11100 s
b11000 *
b11000 r
b11000 !"
b11000 $"
b11000 :"
1!
#180001
0!
#185001
b101 $
b101 2"
b101 @"
b101 8"
b101 7
b101 R
b101 ("
b101 ,"
b100000 +
b100000 -"
b100000 9"
b100000 1"
b101 4
b101 `
b101 y
b101 /"
b101 3"
b10 <
b10 S
b10 o
b111 a
0b
b1100 A"
01
b101 (
b101 t
b101 z
b101 *"
b101 <"
b110 >"
b11000101111011000110011 /
b11000101111011000110011 }
b11000101111011000110011 ""
b100000 5
b100000 q
b100000 ."
b100000 5"
b100000 s
b11100 *
b11100 r
b11100 !"
b11100 $"
b11100 :"
1!
#190001
0!
#195001
b1001001 $
b1001001 2"
b1001001 @"
b1001001 8"
b1001001 4
b1001001 `
b1001001 y
b1001001 /"
b1001001 3"
b11111111111111111111111111111011 7
b11111111111111111111111111111011 R
b11111111111111111111111111111011 ("
b11111111111111111111111111111011 ,"
b100100 +
b100100 -"
b100100 9"
b100100 1"
b1101 A"
11
b11111111111111111111111111111011 (
b11111111111111111111111111111011 t
b11111111111111111111111111111011 z
b11111111111111111111111111111011 *"
b11111111111111111111111111111011 <"
b111 >"
b11100101111011010110011 /
b11100101111011010110011 }
b11100101111011010110011 ""
b100100 5
b100100 q
b100100 ."
b100100 5"
b100100 s
b100000 *
b100000 r
b100000 !"
b100000 $"
b100000 :"
1!
#200001
0!
#205001
b1001101 $
b1001101 2"
b1001101 @"
b1001101 8"
b101 7
b101 R
b101 ("
b101 ,"
b101000 +
b101000 -"
b101000 9"
b101000 1"
b1001101 4
b1001101 `
b1001101 y
b1001101 /"
b1001101 3"
b11 <
b11 S
b11 o
b110 a
b1110 A"
01
b101 (
b101 t
b101 z
b101 *"
b101 <"
b110 >"
b11000101110011100110011 /
b11000101110011100110011 }
b11000101110011100110011 ""
b101000 5
b101000 q
b101000 ."
b101000 5"
b101000 s
b100100 *
b100100 r
b100100 !"
b100100 $"
b100100 :"
1!
#210001
0!
#215001
b11111111111111111111111111111111 $
b11111111111111111111111111111111 2"
b11111111111111111111111111111111 @"
b11111111111111111111111111111111 8"
b11111111111111111111111111111111 4
b11111111111111111111111111111111 `
b11111111111111111111111111111111 y
b11111111111111111111111111111111 /"
b11111111111111111111111111111111 3"
b11111111111111111111111111111011 7
b11111111111111111111111111111011 R
b11111111111111111111111111111011 ("
b11111111111111111111111111111011 ,"
b101100 +
b101100 -"
b101100 9"
b101100 1"
b1111 A"
11
b11111111111111111111111111111011 (
b11111111111111111111111111111011 t
b11111111111111111111111111111011 z
b11111111111111111111111111111011 *"
b11111111111111111111111111111011 <"
b111 >"
b11100101110011110110011 /
b11100101110011110110011 }
b11100101110011110110011 ""
b101100 5
b101100 q
b101100 ."
b101100 5"
b101100 s
b101000 *
b101000 r
b101000 !"
b101000 $"
b101000 :"
1!
#220001
0!
#225001
b1 $
b1 2"
b1 @"
b1 8"
bx 7
bx R
bx ("
bx ,"
bx 8
bx T
bx #"
bx '"
b110000 +
b110000 -"
b110000 9"
b110000 1"
b1 4
b1 `
b1 y
b1 /"
b1 3"
b1111 <
b1111 S
b1111 o
bx |
bx a
xb
bx A"
bx (
bx t
bx z
bx *"
bx <"
bx >"
x2
x1
bx )
bx u
bx %"
bx ;"
bx ="
bx v
bx /
bx }
bx ""
b110000 5
b110000 q
b110000 ."
b110000 5"
b110000 s
b101100 *
b101100 r
b101100 !"
b101100 $"
b101100 :"
1!
#230001
0!
#235001
b110100 +
b110100 -"
b110100 9"
b110100 1"
b110100 5
b110100 q
b110100 ."
b110100 5"
b110100 s
b110000 *
b110000 r
b110000 !"
b110000 $"
b110000 :"
1!
#240002
b100 +
b100 -"
b100 9"
b100 1"
b11 %
b11 @
b11 K
b11 M
b0 ?
b0 L
b0 O
b0 Q
b100 5
b100 q
b100 ."
b100 5"
b100 s
b0 =
b0 N
b101011 $
b101011 2"
b101011 @"
b101011 8"
b101011 0
b101011 ~
b101011 )"
b101011 7
b101011 R
b101011 ("
b101011 ,"
b0 8
b0 T
b0 #"
b0 '"
1:
b1 9
b1 c
b1 w
b0 *
b0 r
b0 !"
b0 $"
b0 :"
b0 "
b0 ?"
b101011 4
b101011 `
b101011 y
b101011 /"
b101011 3"
b0 <
b0 S
b0 o
b10011 |
b0 a
0b
b101 A"
12
01
b0 (
b0 t
b0 z
b0 *"
b0 <"
b1011 >"
b0 )
b0 u
b0 %"
b0 ;"
b0 ="
b10011 v
b10101100000000001010010011 /
b10101100000000001010010011 }
b10101100000000001010010011 ""
0#
#245002
0!
#250002
b1110 3
b1110 A
b1110 D
b1110 I
1!
#255002
b11000001 %
b11000001 @
b11000001 K
b11000001 M
b1011 ?
b1011 L
b1011 O
b1011 Q
b101011 =
b101011 N
b101011 "
b101011 ?"
b1111 3
b1111 A
b1111 D
b1111 I
0!
1#
#260002
b10100 $
b10100 2"
b10100 @"
b10100 8"
b10100 4
b10100 `
b10100 y
b10100 /"
b10100 3"
b10100 7
b10100 R
b10100 ("
b10100 ,"
b10100 0
b10100 ~
b10100 )"
b1000 +
b1000 -"
b1000 9"
b1000 1"
b110 A"
b10100 >"
b1010000000000001100010011 /
b1010000000000001100010011 }
b1010000000000001100010011 ""
b1000 5
b1000 q
b1000 ."
b1000 5"
b1000 s
b100 *
b100 r
b100 !"
b100 $"
b100 :"
1!
#265002
0!
#270002
b11111111111111111111111111110110 $
b11111111111111111111111111110110 2"
b11111111111111111111111111110110 @"
b11111111111111111111111111110110 8"
b11111111111111111111111111110110 4
b11111111111111111111111111110110 `
b11111111111111111111111111110110 y
b11111111111111111111111111110110 /"
b11111111111111111111111111110110 3"
b11111111111111111111111111110110 7
b11111111111111111111111111110110 R
b11111111111111111111111111110110 ("
b11111111111111111111111111110110 ,"
b11111111111111111111111111110110 0
b11111111111111111111111111110110 ~
b11111111111111111111111111110110 )"
b1100 +
b1100 -"
b1100 9"
b1100 1"
1b
b111 A"
b10110 >"
b11111111011000000000001110010011 /
b11111111011000000000001110010011 }
b11111111011000000000001110010011 ""
b1100 5
b1100 q
b1100 ."
b1100 5"
b1100 s
b1000 *
b1000 r
b1000 !"
b1000 $"
b1000 :"
1!
#275002
0!
#280002
b11111111111111111111111111101010 $
b11111111111111111111111111101010 2"
b11111111111111111111111111101010 @"
b11111111111111111111111111101010 8"
b11111111111111111111111111101010 4
b11111111111111111111111111101010 `
b11111111111111111111111111101010 y
b11111111111111111111111111101010 /"
b11111111111111111111111111101010 3"
b11111111111111111111111111101010 7
b11111111111111111111111111101010 R
b11111111111111111111111111101010 ("
b11111111111111111111111111101010 ,"
b11111111111111111111111111101010 0
b11111111111111111111111111101010 ~
b11111111111111111111111111101010 )"
b10000 +
b10000 -"
b10000 9"
b10000 1"
b1000 A"
b1010 >"
b11111110101000000000010000010011 /
b11111110101000000000010000010011 }
b11111110101000000000010000010011 ""
b10000 5
b10000 q
b10000 ."
b10000 5"
b10000 s
b1100 *
b1100 r
b1100 !"
b1100 $"
b1100 :"
1!
#285002
0!
#290002
b10100 7
b10100 R
b10100 ("
b10100 ,"
b0 $
b0 2"
b0 @"
b0 8"
b101011 8
b101011 T
b101011 #"
b101011 '"
0:
b0 9
b0 c
b0 w
b110 0
b110 ~
b110 )"
b10100 +
b10100 -"
b10100 9"
b10100 1"
b0 4
b0 `
b0 y
b0 /"
b0 3"
b100 <
b100 S
b100 o
b110011 |
b10 a
0b
b1001 A"
b10100 (
b10100 t
b10100 z
b10100 *"
b10100 <"
b110 >"
02
b101011 )
b101011 u
b101011 %"
b101011 ;"
b101 ="
b110011 v
b11000101010010010110011 /
b11000101010010010110011 }
b11000101010010010110011 ""
b10100 5
b10100 q
b10100 ."
b10100 5"
b10100 s
b10000 *
b10000 r
b10000 !"
b10000 $"
b10000 :"
1!
#295002
0!
#300002
b1 $
b1 2"
b1 @"
b1 8"
b1 4
b1 `
b1 y
b1 /"
b1 3"
b101011 7
b101011 R
b101011 ("
b101011 ,"
b10100 8
b10100 T
b10100 #"
b10100 '"
b11000 +
b11000 -"
b11000 9"
b11000 1"
b1010 A"
11
b101011 (
b101011 t
b101011 z
b101011 *"
b101011 <"
b101 >"
02
b10100 )
b10100 u
b10100 %"
b10100 ;"
b110 ="
b10100110010010100110011 /
b10100110010010100110011 }
b10100110010010100110011 ""
b11000 5
b11000 q
b11000 ."
b11000 5"
b11000 s
b10100 *
b10100 r
b10100 !"
b10100 $"
b10100 :"
1!
#305002
0!
#310002
b0 $
b0 2"
b0 @"
b0 8"
b0 4
b0 `
b0 y
b0 /"
b0 3"
b11111111111111111111111111110110 7
b11111111111111111111111111110110 R
b11111111111111111111111111110110 ("
b11111111111111111111111111110110 ,"
b11100 +
b11100 -"
b11100 9"
b11100 1"
b1011 A"
b11111111111111111111111111110110 (
b11111111111111111111111111110110 t
b11111111111111111111111111110110 z
b11111111111111111111111111110110 *"
b11111111111111111111111111110110 <"
b111 >"
b11100110010010110110011 /
b11100110010010110110011 }
b11100110010010110110011 ""
b11100 5
b11100 q
b11100 ."
b11100 5"
b11100 s
b11000 *
b11000 r
b11000 !"
b11000 $"
b11000 :"
1!
#315002
0!
