Lab6/cocotb/waveform.vcd
$date
	Tue Mar 18 21:15:38 2025
$end
$version
	Icarus Verilog
$end
$timescale
	1ps
$end
$scope module SingleCycleCPU $end
$var wire 32 ! ALU_ow [31:0] $end
$var wire 1 " clk $end
$var wire 32 # reg5Dataw [31:0] $end
$var wire 1 $ start $end
$var wire 32 % writeDataw [31:0] $end
$var wire 8 & segments [7:0] $end
$var wire 1 ' regWritew $end
$var wire 32 ( readDataw [31:0] $end
$var wire 32 ) readData2w [31:0] $end
$var wire 32 * readData1w [31:0] $end
$var wire 32 + pc_ow [31:0] $end
$var wire 32 , pc_iw [31:0] $end
$var wire 1 - memwritew $end
$var wire 2 . memtoregw [1:0] $end
$var wire 1 / memReadw $end
$var wire 32 0 inst_memo [31:0] $end
$var wire 32 1 immw [31:0] $end
$var wire 1 2 brLtw $end
$var wire 1 3 brEqw $end
$var wire 4 4 an [3:0] $end
$var wire 32 5 addressw [31:0] $end
$var wire 32 6 adder_ow [31:0] $end
$var wire 1 7 PCSelw $end
$var wire 32 8 Bw [31:0] $end
$var wire 32 9 Aw [31:0] $end
$var wire 3 : ALUopw [2:0] $end
$var wire 1 ; ALUSrc2w $end
$var wire 1 < ALUSrc1w $end
$var wire 4 = ALUCt1w [3:0] $end
$scope module SevenSegmentDisplayInst $end
$var wire 1 " Clk $end
$var wire 16 > DataIn [15:0] $end
$var wire 1 $ Reset $end
$var wire 2 ? selector [1:0] $end
$var wire 4 @ out [3:0] $end
$var wire 8 A Segments [7:0] $end
$var wire 4 B AN [3:0] $end
$var parameter 32 C ControllerClockCycle $end
$var parameter 32 D ControllerCounterWidth $end
$scope module SevenSegmentControllerInst $end
$var wire 4 E AN [3:0] $end
$var wire 1 " Clk $end
$var wire 1 $ Reset $end
$var wire 2 F Selector [1:0] $end
$var parameter 32 G ControllerClockCycle $end
$var parameter 32 H ControllerCounterWidth $end
$var reg 1 I Counter $end
$var reg 4 J an [3:0] $end
$var reg 2 K select [1:0] $end
$upscope $end
$scope module SevenSegmentDecoderInst $end
$var wire 8 L Segments [7:0] $end
$var wire 4 M DataIn [3:0] $end
$var reg 8 N segments [7:0] $end
$upscope $end
$scope module SevenSegmentMultiplexerInst $end
$var wire 16 O DataIn [15:0] $end
$var wire 4 P DataOut [3:0] $end
$var wire 2 Q Selector [1:0] $end
$var reg 4 R out [3:0] $end
$upscope $end
$upscope $end
$scope module m_ALU $end
$var wire 1 2 brLt $end
$var wire 1 3 brEq $end
$var wire 32 S B [31:0] $end
$var wire 4 T ALUctl [3:0] $end
$var wire 32 U A [31:0] $end
$var parameter 4 V ADD $end
$var parameter 4 W ADDEVEN $end
$var parameter 4 X ADDIFEQ $end
$var parameter 4 Y ADDIFLT $end
$var parameter 4 Z ADDIFNEQ $end
$var parameter 4 [ ADDIFNLT $end
$var parameter 4 \ AND $end
$var parameter 4 ] NOTHING $end
$var parameter 4 ^ OR $end
$var parameter 4 _ SLT $end
$var parameter 4 ` SUB $end
$var reg 32 a ALUOut [31:0] $end
$upscope $end
$scope module m_ALUCtrl $end
$var wire 3 b funct3 [2:0] $end
$var wire 1 c funct7 $end
$var wire 3 d ALUOp [2:0] $end
$var parameter 4 e ADD $end
$var parameter 4 f ADDEVEN $end
$var parameter 4 g ADDIFEQ $end
$var parameter 4 h ADDIFLT $end
$var parameter 4 i ADDIFNEQ $end
$var parameter 4 j ADDIFNLT $end
$var parameter 4 k AND $end
$var parameter 4 l NOTHING $end
$var parameter 4 m OR $end
$var parameter 4 n SLT $end
$var parameter 4 o SUB $end
$var reg 4 p ALUCtl [3:0] $end
$upscope $end
$scope module m_Adder_1 $end
$var wire 32 q b [31:0] $end
$var wire 32 r sum [31:0] $end
$var wire 32 s a [31:0] $end
$var reg 32 t sumReg [31:0] $end
$upscope $end
$scope module m_BranchComp $end
$var wire 1 3 brEq $end
$var wire 1 2 brLt $end
$var wire 32 u rs2 [31:0] $end
$var wire 32 v rs1 [31:0] $end
$var reg 1 w reg_brEq $end
$var reg 1 x reg_brLt $end
$upscope $end
$scope module m_Control $end
$var wire 7 y opcode [6:0] $end
$var reg 3 z ALUOp [2:0] $end
$var reg 1 < ALUSrc1 $end
$var reg 1 ; ALUSrc2 $end
$var reg 1 7 PCSel $end
$var reg 1 / memRead $end
$var reg 1 - memWrite $end
$var reg 2 { memtoReg [1:0] $end
$var reg 1 ' regWrite $end
$upscope $end
$scope module m_DataMemory $end
$var wire 32 | address [31:0] $end
$var wire 1 " clk $end
$var wire 1 / memRead $end
$var wire 1 - memWrite $end
$var wire 1 $ rst $end
$var wire 32 } writeData [31:0] $end
$var reg 32 ~ readData [31:0] $end
$upscope $end
$scope module m_ImmGen $end
$var wire 7 !" opcode [6:0] $end
$var wire 32 "" inst [31:0] $end
$var reg 32 #" imm [31:0] $end
$upscope $end
$scope module m_InstMem $end
$var wire 32 $" readAddr [31:0] $end
$var wire 32 %" inst [31:0] $end
$upscope $end
$scope module m_Mux_ALU_1 $end
$var wire 32 &" out [31:0] $end
$var wire 1 < sel $end
$var wire 32 '" s1 [31:0] $end
$var wire 32 (" s0 [31:0] $end
$var parameter 32 )" size $end
$var reg 32 *" reg_out [31:0] $end
$upscope $end
$scope module m_Mux_ALU_2 $end
$var wire 32 +" out [31:0] $end
$var wire 32 ," s1 [31:0] $end
$var wire 1 ; sel $end
$var wire 32 -" s0 [31:0] $end
$var parameter 32 ." size $end
$var reg 32 /" reg_out [31:0] $end
$upscope $end
$scope module m_Mux_PC $end
$var wire 32 0" out [31:0] $end
$var wire 32 1" s0 [31:0] $end
$var wire 32 2" s1 [31:0] $end
$var wire 1 7 sel $end
$var parameter 32 3" size $end
$var reg 32 4" reg_out [31:0] $end
$upscope $end
$scope module m_Mux_WriteData $end
$var wire 32 5" out [31:0] $end
$var wire 32 6" s0 [31:0] $end
$var wire 32 7" s1 [31:0] $end
$var wire 32 8" s2 [31:0] $end
$var wire 2 9" sel [1:0] $end
$var parameter 32 :" size $end
$var reg 32 ;" reg_out [31:0] $end
$upscope $end
$scope module m_PC $end
$var wire 1 " clk $end
$var wire 32 <" pc_i [31:0] $end
$var wire 1 $ rst $end
$var reg 32 =" pc_o [31:0] $end
$upscope $end
$scope module m_Register $end
$var wire 1 " clk $end
$var wire 32 >" readData1 [31:0] $end
$var wire 32 ?" readData2 [31:0] $end
$var wire 5 @" readReg1 [4:0] $end
$var wire 5 A" readReg2 [4:0] $end
$var wire 32 B" reg5Data [31:0] $end
$var wire 1 ' regWrite $end
$var wire 1 $ rst $end
$var wire 32 C" writeData [31:0] $end
$var wire 5 D" writeReg [4:0] $end
$upscope $end
$upscope $end
$enddefinitions $end
$comment Show the parameter values. $end
$dumpall
b100000 :"
b100000 3"
b100000 ."
b100000 )"
b1 o
b100 n
b11 m
b101 l
b10 k
b1010 j
b1000 i
b1001 h
b110 g
b111 f
b0 e
b1 `
b100 _
b11 ^
b101 ]
b10 \
b1010 [
b1000 Z
b1001 Y
b110 X
b111 W
b0 V
b1 H
b1 G
b1 D
b1 C
$end
#0
$dumpvars
b101 D"
b111 C"
b0 B"
b111 A"
b0 @"
b0 ?"
b0 >"
b0 ="
b100 <"
b111 ;"
b0 9"
b100 8"
b0 7"
b111 6"
b111 5"
b100 4"
bz 2"
b100 1"
b100 0"
b111 /"
b0 -"
b111 ,"
b111 +"
b0 *"
b0 ("
b0 '"
b0 &"
b11100000000001010010011 %"
b0 $"
b111 #"
b11100000000001010010011 ""
b10011 !"
b0 ~
b0 }
b111 |
b0 {
b1 z
b10011 y
0x
1w
b0 v
b0 u
b100 t
b0 s
b100 r
b100 q
b0 p
b1 d
0c
b0 b
b111 a
b0 U
b0 T
b111 S
b0 R
bx Q
b0 P
b0 O
b11 N
b0 M
b11 L
bx K
b1111 J
0I
bx F
b1111 E
b1111 B
b11 A
b0 @
bx ?
b0 >
b0 =
0<
1;
b1 :
b0 9
b111 8
07
b100 6
b111 5
b1111 4
13
02
b111 1
b11100000000001010010011 0
0/
b0 .
0-
b100 ,
b0 +
b0 *
b0 )
b0 (
1'
b11 &
b111 %
0$
b0 #
1"
bz !
$end
#5000
0"
#10000
b1110 4
b1110 B
b1110 E
b1110 J
1"
#15000
b11111 &
b11111 A
b11111 L
b11111 N
b111 @
b111 M
b111 P
b111 R
b111 >
b111 O
b111 #
b111 B"
b0 ?
b0 F
b0 Q
b0 K
b1111 4
b1111 B
b1111 E
b1111 J
0"
1$
#20000
b100 %
b100 5"
b100 C"
b100 ;"
b100 5
b100 a
b100 |
b100 6"
b11111111111111111111111111111101 8
b11111111111111111111111111111101 S
b11111111111111111111111111111101 +"
b11111111111111111111111111111101 /"
03
0w
b111 9
b111 U
b111 &"
b111 *"
b11111111111111111111111111111101 1
b11111111111111111111111111111101 #"
b11111111111111111111111111111101 ,"
b1000 ,
b1000 0"
b1000 <"
b1000 4"
1c
b11101 A"
b111 *
b111 v
b111 ("
b111 >"
b101 @"
b11111111110100101000001010010011 0
b11111111110100101000001010010011 ""
b11111111110100101000001010010011 %"
b1000 6
b1000 r
b1000 1"
b1000 8"
b1000 t
b100 +
b100 s
b100 $"
b100 '"
b100 ="
1"
#25000
b1 %
b1 5"
b1 C"
b1 ;"
b1 5
b1 a
b1 |
b1 6"
b100 9
b100 U
b100 &"
b100 *"
b10011001 &
b10011001 A
b10011001 L
b10011001 N
b100 @
b100 M
b100 P
b100 R
b100 >
b100 O
b100 *
b100 v
b100 ("
b100 >"
b100 #
b100 B"
0"
#30000
b11111111111111111111111111011011 %
b11111111111111111111111111011011 5"
b11111111111111111111111111011011 C"
b11111111111111111111111111011011 ;"
b11111111111111111111111111011011 5
b11111111111111111111111111011011 a
b11111111111111111111111111011011 |
b11111111111111111111111111011011 6"
b11111111111111111111111111011011 8
b11111111111111111111111111011011 S
b11111111111111111111111111011011 +"
b11111111111111111111111111011011 /"
13
1w
b0 9
b0 U
b0 &"
b0 *"
b11111111111111111111111111011011 1
b11111111111111111111111111011011 #"
b11111111111111111111111111011011 ,"
b1100 ,
b1100 0"
b1100 <"
b1100 4"
b110 D"
b11011 A"
b0 *
b0 v
b0 ("
b0 >"
b0 @"
b11111101101100000000001100010011 0
b11111101101100000000001100010011 ""
b11111101101100000000001100010011 %"
b1100 6
b1100 r
b1100 1"
b1100 8"
b1100 t
b1000 +
b1000 s
b1000 $"
b1000 '"
b1000 ="
1"
#35000
0"
#40000
b10011 %
b10011 5"
b10011 C"
b10011 ;"
b10011 5
b10011 a
b10011 |
b10011 6"
b10011 8
b10011 S
b10011 +"
b10011 /"
b10011 1
b10011 #"
b10011 ,"
b10000 ,
b10000 0"
b10000 <"
b10000 4"
0c
b111 D"
b10011 A"
b1001100000000001110010011 0
b1001100000000001110010011 ""
b1001100000000001110010011 %"
b10000 6
b10000 r
b10000 1"
b10000 8"
b10000 t
b1100 +
b1100 s
b1100 $"
b1100 '"
b1100 ="
1"
#45000
0"
#50000
b11 %
b11 5"
b11 C"
b11 ;"
b111 8
b111 S
b111 +"
b111 /"
b11 5
b11 a
b11 |
b11 6"
b10011 9
b10011 U
b10011 &"
b10011 *"
b111 1
b111 #"
b111 ,"
b10100 ,
b10100 0"
b10100 <"
b10100 4"
b10 =
b10 T
b10 p
b111 b
b10011 )
b10011 u
b10011 }
b10011 -"
b10011 ?"
b111 A"
b10011 *
b10011 v
b10011 ("
b10011 >"
b111 @"
b11100111111001110010011 0
b11100111111001110010011 ""
b11100111111001110010011 %"
b10100 6
b10100 r
b10100 1"
b10100 8"
b10100 t
b10000 +
b10000 s
b10000 $"
b10000 '"
b10000 ="
1"
#55000
b11 9
b11 U
b11 &"
b11 *"
b11 *
b11 v
b11 ("
b11 >"
b11 )
b11 u
b11 }
b11 -"
b11 ?"
0"
#60000
b10 %
b10 5"
b10 C"
b10 ;"
b10 5
b10 a
b10 |
b10 6"
b11111111111111111111111111111110 8
b11111111111111111111111111111110 S
b11111111111111111111111111111110 +"
b11111111111111111111111111111110 /"
03
0w
b11111111111111111111111111111110 1
b11111111111111111111111111111110 #"
b11111111111111111111111111111110 ,"
b11000 ,
b11000 0"
b11000 <"
b11000 4"
1c
b1000 D"
b0 )
b0 u
b0 }
b0 -"
b0 ?"
b11110 A"
b11111111111000111111010000010011 0
b11111111111000111111010000010011 ""
b11111111111000111111010000010011 %"
b11000 6
b11000 r
b11000 1"
b11000 8"
b11000 t
b10100 +
b10100 s
b10100 $"
b10100 '"
b10100 ="
1"
#65000
0"
#70000
b1101 %
b1101 5"
b1101 C"
b1101 ;"
b1101 8
b1101 S
b1101 +"
b1101 /"
b1101 5
b1101 a
b1101 |
b1101 6"
13
1w
b0 9
b0 U
b0 &"
b0 *"
b1101 1
b1101 #"
b1101 ,"
b11100 ,
b11100 0"
b11100 <"
b11100 4"
b11 =
b11 T
b11 p
b110 b
0c
b1001 D"
b1101 A"
b0 *
b0 v
b0 ("
b0 >"
b0 @"
b110100000110010010010011 0
b110100000110010010010011 ""
b110100000110010010010011 %"
b11100 6
b11100 r
b11100 1"
b11100 8"
b11100 t
b11000 +
b11000 s
b11000 $"
b11000 '"
b11000 ="
1"
#75000
0"
#80000
b11111111111111111111111111111111 %
b11111111111111111111111111111111 5"
b11111111111111111111111111111111 C"
b11111111111111111111111111111111 ;"
b11111111111111111111111111111111 5
b11111111111111111111111111111111 a
b11111111111111111111111111111111 |
b11111111111111111111111111111111 6"
b11111111111111111111111111111110 8
b11111111111111111111111111111110 S
b11111111111111111111111111111110 +"
b11111111111111111111111111111110 /"
03
0w
b1101 9
b1101 U
b1101 &"
b1101 *"
b11111111111111111111111111111110 1
b11111111111111111111111111111110 #"
b11111111111111111111111111111110 ,"
b100000 ,
b100000 0"
b100000 <"
b100000 4"
1c
b1010 D"
b11110 A"
b1101 *
b1101 v
b1101 ("
b1101 >"
b1001 @"
b11111111111001001110010100010011 0
b11111111111001001110010100010011 ""
b11111111111001001110010100010011 %"
b100000 6
b100000 r
b100000 1"
b100000 8"
b100000 t
b11100 +
b11100 s
b11100 $"
b11100 '"
b11100 ="
1"
#85000
0"
#90000
bx %
bx 5"
bx C"
bx ;"
bx 8
bx S
bx +"
bx /"
bx 5
bx a
bx |
bx 6"
x3
xw
x2
xx
bx 9
bx U
bx &"
bx *"
bx 1
bx #"
bx ,"
b100100 ,
b100100 0"
b100100 <"
b100100 4"
b1111 =
b1111 T
b1111 p
bx !"
bx b
xc
bx D"
bx )
bx u
bx }
bx -"
bx ?"
bx A"
bx *
bx v
bx ("
bx >"
bx @"
bx y
bx 0
bx ""
bx %"
b100100 6
b100100 r
b100100 1"
b100100 8"
b100100 t
b100000 +
b100000 s
b100000 $"
b100000 '"
b100000 ="
1"
#95000
0"
#100000
b101000 ,
b101000 0"
b101000 <"
b101000 4"
b101000 6
b101000 r
b101000 1"
b101000 8"
b101000 t
b100100 +
b100100 s
b100100 $"
b100100 '"
b100100 ="
1"
#105001
b1001101 %
b1001101 5"
b1001101 C"
b1001101 ;"
b1001101 1
b1001101 #"
b1001101 ,"
b100 ,
b100 0"
b100 <"
b100 4"
b1001101 5
b1001101 a
b1001101 |
b1001101 6"
b1001101 8
b1001101 S
b1001101 +"
b1001101 /"
b11 &
b11 A
b11 L
b11 N
b0 @
b0 M
b0 P
b0 R
b100 6
b100 r
b100 1"
b100 8"
b100 t
b0 >
b0 O
13
1w
02
0x
b0 9
b0 U
b0 &"
b0 *"
1;
b1 :
b1 d
b1 z
b0 +
b0 s
b0 $"
b0 '"
b0 ="
b0 #
b0 B"
b0 =
b0 T
b0 p
b10011 !"
b0 b
0c
b101 D"
b0 )
b0 u
b0 }
b0 -"
b0 ?"
b1101 A"
b0 *
b0 v
b0 ("
b0 >"
b0 @"
b10011 y
b100110100000000001010010011 0
b100110100000000001010010011 ""
b100110100000000001010010011 %"
0$
#110001
0"
#115001
b1110 4
b1110 B
b1110 E
b1110 J
1"
#120001
b10000101 &
b10000101 A
b10000101 L
b10000101 N
b1101 @
b1101 M
b1101 P
b1101 R
b1001101 >
b1001101 O
b1001101 #
b1001101 B"
b1111 4
b1111 B
b1111 E
b1111 J
0"
1$
#125001
b101 %
b101 5"
b101 C"
b101 ;"
b101 5
b101 a
b101 |
b101 6"
b101 8
b101 S
b101 +"
b101 /"
03
0w
12
1x
b101 1
b101 #"
b101 ,"
b1000 ,
b1000 0"
b1000 <"
b1000 4"
b110 D"
b1001101 )
b1001101 u
b1001101 }
b1001101 -"
b1001101 ?"
b101 A"
b10100000000001100010011 0
b10100000000001100010011 ""
b10100000000001100010011 %"
b1000 6
b1000 r
b1000 1"
b1000 8"
b1000 t
b100 +
b100 s
b100 $"
b100 '"
b100 ="
1"
#130001
0"
#135001
b11111111111111111111111111111011 %
b11111111111111111111111111111011 5"
b11111111111111111111111111111011 C"
b11111111111111111111111111111011 ;"
b11111111111111111111111111111011 5
b11111111111111111111111111111011 a
b11111111111111111111111111111011 |
b11111111111111111111111111111011 6"
b11111111111111111111111111111011 8
b11111111111111111111111111111011 S
b11111111111111111111111111111011 +"
b11111111111111111111111111111011 /"
13
1w
02
0x
b11111111111111111111111111111011 1
b11111111111111111111111111111011 #"
b11111111111111111111111111111011 ,"
b1100 ,
b1100 0"
b1100 <"
b1100 4"
1c
b111 D"
b0 )
b0 u
b0 }
b0 -"
b0 ?"
b11011 A"
b11111111101100000000001110010011 0
b11111111101100000000001110010011 ""
b11111111101100000000001110010011 %"
b1100 6
b1100 r
b1100 1"
b1100 8"
b1100 t
b1000 +
b1000 s
b1000 $"
b1000 '"
b1000 ="
1"
#140001
0"
#145001
b1010010 %
b1010010 5"
b1010010 C"
b1010010 ;"
b1010010 5
b1010010 a
b1010010 |
b1010010 6"
b101 8
b101 S
b101 +"
b101 /"
03
0w
b1001101 9
b1001101 U
b1001101 &"
b1001101 *"
0;
b0 :
b0 d
b0 z
b110 1
b110 #"
b110 ,"
b10000 ,
b10000 0"
b10000 <"
b10000 4"
b110011 !"
0c
b1000 D"
b101 )
b101 u
b101 }
b101 -"
b101 ?"
b110 A"
b1001101 *
b1001101 v
b1001101 ("
b1001101 >"
b101 @"
b110011 y
b11000101000010000110011 0
b11000101000010000110011 ""
b11000101000010000110011 %"
b10000 6
b10000 r
b10000 1"
b10000 8"
b10000 t
b1100 +
b1100 s
b1100 $"
b1100 '"
b1100 ="
1"
#150001
0"
#155001
b1001000 %
b1001000 5"
b1001000 C"
b1001000 ;"
b1001000 5
b1001000 a
b1001000 |
b1001000 6"
12
1x
b11111111111111111111111111111011 8
b11111111111111111111111111111011 S
b11111111111111111111111111111011 +"
b11111111111111111111111111111011 /"
b10100 ,
b10100 0"
b10100 <"
b10100 4"
b1001 D"
b11111111111111111111111111111011 )
b11111111111111111111111111111011 u
b11111111111111111111111111111011 }
b11111111111111111111111111111011 -"
b11111111111111111111111111111011 ?"
b111 A"
b11100101000010010110011 0
b11100101000010010110011 ""
b11100101000010010110011 %"
b10100 6
b10100 r
b10100 1"
b10100 8"
b10100 t
b10000 +
b10000 s
b10000 $"
b10000 '"
b10000 ="
1"
#160001
0"
#165001
b1001000 %
b1001000 5"
b1001000 C"
b1001000 ;"
b1001000 5
b1001000 a
b1001000 |
b1001000 6"
02
0x
b101 8
b101 S
b101 +"
b101 /"
b11000 ,
b11000 0"
b11000 <"
b11000 4"
b1 =
b1 T
b1 p
1c
b1010 D"
b101 )
b101 u
b101 }
b101 -"
b101 ?"
b110 A"
b1000000011000101000010100110011 0
b1000000011000101000010100110011 ""
b1000000011000101000010100110011 %"
b11000 6
b11000 r
b11000 1"
b11000 8"
b11000 t
b10100 +
b10100 s
b10100 $"
b10100 '"
b10100 ="
1"
#170001
0"
#175001
b1010010 %
b1010010 5"
b1010010 C"
b1010010 ;"
b1010010 5
b1010010 a
b1010010 |
b1010010 6"
12
1x
b11111111111111111111111111111011 8
b11111111111111111111111111111011 S
b11111111111111111111111111111011 +"
b11111111111111111111111111111011 /"
b11100 ,
b11100 0"
b11100 <"
b11100 4"
b1011 D"
b11111111111111111111111111111011 )
b11111111111111111111111111111011 u
b11111111111111111111111111111011 }
b11111111111111111111111111111011 -"
b11111111111111111111111111111011 ?"
b111 A"
b1000000011100101000010110110011 0
b1000000011100101000010110110011 ""
b1000000011100101000010110110011 %"
b11100 6
b11100 r
b11100 1"
b11100 8"
b11100 t
b11000 +
b11000 s
b11000 $"
b11000 '"
b11000 ="
1"
#180001
0"
#185001
b101 %
b101 5"
b101 C"
b101 ;"
b101 5
b101 a
b101 |
b101 6"
02
0x
b101 8
b101 S
b101 +"
b101 /"
b100000 ,
b100000 0"
b100000 <"
b100000 4"
b10 =
b10 T
b10 p
b111 b
0c
b1100 D"
b101 )
b101 u
b101 }
b101 -"
b101 ?"
b110 A"
b11000101111011000110011 0
b11000101111011000110011 ""
b11000101111011000110011 %"
b100000 6
b100000 r
b100000 1"
b100000 8"
b100000 t
b11100 +
b11100 s
b11100 $"
b11100 '"
b11100 ="
1"
#190001
0"
#195001
b1001001 %
b1001001 5"
b1001001 C"
b1001001 ;"
b1001001 5
b1001001 a
b1001001 |
b1001001 6"
12
1x
b11111111111111111111111111111011 8
b11111111111111111111111111111011 S
b11111111111111111111111111111011 +"
b11111111111111111111111111111011 /"
b100100 ,
b100100 0"
b100100 <"
b100100 4"
b1101 D"
b11111111111111111111111111111011 )
b11111111111111111111111111111011 u
b11111111111111111111111111111011 }
b11111111111111111111111111111011 -"
b11111111111111111111111111111011 ?"
b111 A"
b11100101111011010110011 0
b11100101111011010110011 ""
b11100101111011010110011 %"
b100100 6
b100100 r
b100100 1"
b100100 8"
b100100 t
b100000 +
b100000 s
b100000 $"
b100000 '"
b100000 ="
1"
#200001
0"
#205001
b1001101 %
b1001101 5"
b1001101 C"
b1001101 ;"
b1001101 5
b1001101 a
b1001101 |
b1001101 6"
02
0x
b101 8
b101 S
b101 +"
b101 /"
b101000 ,
b101000 0"
b101000 <"
b101000 4"
b11 =
b11 T
b11 p
b110 b
b1110 D"
b101 )
b101 u
b101 }
b101 -"
b101 ?"
b110 A"
b11000101110011100110011 0
b11000101110011100110011 ""
b11000101110011100110011 %"
b101000 6
b101000 r
b101000 1"
b101000 8"
b101000 t
b100100 +
b100100 s
b100100 $"
b100100 '"
b100100 ="
1"
#210001
0"
#215001
b11111111111111111111111111111111 %
b11111111111111111111111111111111 5"
b11111111111111111111111111111111 C"
b11111111111111111111111111111111 ;"
b11111111111111111111111111111111 5
b11111111111111111111111111111111 a
b11111111111111111111111111111111 |
b11111111111111111111111111111111 6"
12
1x
b11111111111111111111111111111011 8
b11111111111111111111111111111011 S
b11111111111111111111111111111011 +"
b11111111111111111111111111111011 /"
b101100 ,
b101100 0"
b101100 <"
b101100 4"
b1111 D"
b11111111111111111111111111111011 )
b11111111111111111111111111111011 u
b11111111111111111111111111111011 }
b11111111111111111111111111111011 -"
b11111111111111111111111111111011 ?"
b111 A"
b11100101110011110110011 0
b11100101110011110110011 ""
b11100101110011110110011 %"
b101100 6
b101100 r
b101100 1"
b101100 8"
b101100 t
b101000 +
b101000 s
b101000 $"
b101000 '"
b101000 ="
1"
#220001
0"
#225001
bx %
bx 5"
bx C"
bx ;"
bx 5
bx a
bx |
bx 6"
bx 8
bx S
bx +"
bx /"
x3
xw
x2
xx
bx 9
bx U
bx &"
bx *"
b110000 ,
b110000 0"
b110000 <"
b110000 4"
b1111 =
b1111 T
b1111 p
bx !"
bx b
xc
bx D"
bx )
bx u
bx }
bx -"
bx ?"
bx A"
bx *
bx v
bx ("
bx >"
bx @"
bx y
bx 0
bx ""
bx %"
b110000 6
b110000 r
b110000 1"
b110000 8"
b110000 t
b101100 +
b101100 s
b101100 $"
b101100 '"
b101100 ="
1"
#230001
0"
#235001
b110100 ,
b110100 0"
b110100 <"
b110100 4"
b110100 6
b110100 r
b110100 1"
b110100 8"
b110100 t
b110000 +
b110000 s
b110000 $"
b110000 '"
b110000 ="
1"
#240002
b100 ,
b100 0"
b100 <"
b100 4"
b101011 %
b101011 5"
b101011 C"
b101011 ;"
b11 &
b11 A
b11 L
b11 N
b0 @
b0 M
b0 P
b0 R
b100 6
b100 r
b100 1"
b100 8"
b100 t
b0 >
b0 O
b101011 5
b101011 a
b101011 |
b101011 6"
b101011 1
b101011 #"
b101011 ,"
b101011 8
b101011 S
b101011 +"
b101011 /"
13
1w
02
0x
b0 9
b0 U
b0 &"
b0 *"
1;
b1 :
b1 d
b1 z
b0 +
b0 s
b0 $"
b0 '"
b0 ="
b0 #
b0 B"
b0 =
b0 T
b0 p
b10011 !"
b0 b
0c
b101 D"
b0 )
b0 u
b0 }
b0 -"
b0 ?"
b1011 A"
b0 *
b0 v
b0 ("
b0 >"
b0 @"
b10011 y
b10101100000000001010010011 0
b10101100000000001010010011 ""
b10101100000000001010010011 %"
0$
#245002
0"
#250002
b1110 4
b1110 B
b1110 E
b1110 J
1"
#255002
b11000001 &
b11000001 A
b11000001 L
b11000001 N
b1011 @
b1011 M
b1011 P
b1011 R
b101011 >
b101011 O
b101011 #
b101011 B"
b1111 4
b1111 B
b1111 E
b1111 J
0"
1$
#260002
b10100 %
b10100 5"
b10100 C"
b10100 ;"
b10100 5
b10100 a
b10100 |
b10100 6"
b10100 8
b10100 S
b10100 +"
b10100 /"
b10100 1
b10100 #"
b10100 ,"
b1000 ,
b1000 0"
b1000 <"
b1000 4"
b110 D"
b10100 A"
b1010000000000001100010011 0
b1010000000000001100010011 ""
b1010000000000001100010011 %"
b1000 6
b1000 r
b1000 1"
b1000 8"
b1000 t
b100 +
b100 s
b100 $"
b100 '"
b100 ="
1"
#265002
0"
#270002
b11111111111111111111111111110110 %
b11111111111111111111111111110110 5"
b11111111111111111111111111110110 C"
b11111111111111111111111111110110 ;"
b11111111111111111111111111110110 5
b11111111111111111111111111110110 a
b11111111111111111111111111110110 |
b11111111111111111111111111110110 6"
b11111111111111111111111111110110 8
b11111111111111111111111111110110 S
b11111111111111111111111111110110 +"
b11111111111111111111111111110110 /"
b11111111111111111111111111110110 1
b11111111111111111111111111110110 #"
b11111111111111111111111111110110 ,"
b1100 ,
b1100 0"
b1100 <"
b1100 4"
1c
b111 D"
b10110 A"
b11111111011000000000001110010011 0
b11111111011000000000001110010011 ""
b11111111011000000000001110010011 %"
b1100 6
b1100 r
b1100 1"
b1100 8"
b1100 t
b1000 +
b1000 s
b1000 $"
b1000 '"
b1000 ="
1"
#275002
0"
#280002
b11111111111111111111111111101010 %
b11111111111111111111111111101010 5"
b11111111111111111111111111101010 C"
b11111111111111111111111111101010 ;"
b11111111111111111111111111101010 5
b11111111111111111111111111101010 a
b11111111111111111111111111101010 |
b11111111111111111111111111101010 6"
b11111111111111111111111111101010 8
b11111111111111111111111111101010 S
b11111111111111111111111111101010 +"
b11111111111111111111111111101010 /"
b11111111111111111111111111101010 1
b11111111111111111111111111101010 #"
b11111111111111111111111111101010 ,"
b10000 ,
b10000 0"
b10000 <"
b10000 4"
b1000 D"
b1010 A"
b11111110101000000000010000010011 0
b11111110101000000000010000010011 ""
b11111110101000000000010000010011 %"
b10000 6
b10000 r
b10000 1"
b10000 8"
b10000 t
b1100 +
b1100 s
b1100 $"
b1100 '"
b1100 ="
1"
#285002
0"
#290002
b0 %
b0 5"
b0 C"
b0 ;"
b10100 8
b10100 S
b10100 +"
b10100 /"
b0 5
b0 a
b0 |
b0 6"
03
0w
b101011 9
b101011 U
b101011 &"
b101011 *"
0;
b0 :
b0 d
b0 z
b110 1
b110 #"
b110 ,"
b10100 ,
b10100 0"
b10100 <"
b10100 4"
b100 =
b100 T
b100 p
b110011 !"
b10 b
0c
b1001 D"
b10100 )
b10100 u
b10100 }
b10100 -"
b10100 ?"
b110 A"
b101011 *
b101011 v
b101011 ("
b101011 >"
b101 @"
b110011 y
b11000101010010010110011 0
b11000101010010010110011 ""
b11000101010010010110011 %"
b10100 6
b10100 r
b10100 1"
b10100 8"
b10100 t
b10000 +
b10000 s
b10000 $"
b10000 '"
b10000 ="
1"
#295002
0"
#300002
b1 %
b1 5"
b1 C"
b1 ;"
b1 5
b1 a
b1 |
b1 6"
b101011 8
b101011 S
b101011 +"
b101011 /"
12
1x
b10100 9
b10100 U
b10100 &"
b10100 *"
b11000 ,
b11000 0"
b11000 <"
b11000 4"
b1010 D"
b101011 )
b101011 u
b101011 }
b101011 -"
b101011 ?"
b101 A"
b10100 *
b10100 v
b10100 ("
b10100 >"
b110 @"
b10100110010010100110011 0
b10100110010010100110011 ""
b10100110010010100110011 %"
b11000 6
b11000 r
b11000 1"
b11000 8"
b11000 t
b10100 +
b10100 s
b10100 $"
b10100 '"
b10100 ="
1"
#305002
0"
#310002
b0 %
b0 5"
b0 C"
b0 ;"
b0 5
b0 a
b0 |
b0 6"
b11111111111111111111111111110110 8
b11111111111111111111111111110110 S
b11111111111111111111111111110110 +"
b11111111111111111111111111110110 /"
b11100 ,
b11100 0"
b11100 <"
b11100 4"
b1011 D"
b11111111111111111111111111110110 )
b11111111111111111111111111110110 u
b11111111111111111111111111110110 }
b11111111111111111111111111110110 -"
b11111111111111111111111111110110 ?"
b111 A"
b11100110010010110110011 0
b11100110010010110110011 ""
b11100110010010110110011 %"
b11100 6
b11100 r
b11100 1"
b11100 8"
b11100 t
b11000 +
b11000 s
b11000 $"
b11000 '"
b11000 ="
1"
#315002
0"
